{"success":true,"data":{"items":[{"id":"019cb193-531e-7efa-b64b-a1623fb423f0","sku":"HERB-BASIL-2IN-1772505746","name":"Basil Plant","price":2.49,"barcode":"BC-BASIL-001-1772505746","isActive":true,"createdAt":"2026-03-03T02:42:28.254763+00:00","updatedAt":"2026-03-03T02:42:28.254763+00:00"},{"id":"019cb193-48de-75e8-a2ed-9e566b85e4bc","sku":"DB01-SKU-1772505743","name":"DB01 Test Plant","price":5.99,"barcode":"DB01-BC-1772505743","isActive":true,"createdAt":"2026-03-03T02:42:25.630204+00:00","updatedAt":"2026-03-03T02:42:25.630204+00:00"},{"id":"019cb193-67b6-746f-a279-5263a6967bc1","sku":"DB01-SKU-1772505751","name":"DB01 Test Plant","price":5.99,"barcode":"DB01-BC-1772505751","isActive":true,"createdAt":"2026-03-03T02:42:33.526516+00:00","updatedAt":"2026-03-03T02:42:33.526516+00:00"},{"id":"019cb193-1ef6-7aef-9cc1-321947b05a92","sku":"HERB-LAV-1","name":"Lavender","price":4.49,"barcode":"BC-LAV-001","isActive":true,"createdAt":"2026-03-03T02:42:14.902631+00:00","updatedAt":"2026-03-03T02:42:14.902631+00:00"},{"id":"019cb193-1ef6-7b40-8d33-5dc06d28634a","sku":"FLOWER-MAR-1","name":"Marigold","price":2.99,"barcode":"BC-MAR-001","isActive":true,"createdAt":"2026-03-03T02:42:14.902631+00:00","updatedAt":"2026-03-03T02:42:14.902631+00:00"},{"id":"019cb192-517d-7af8-a8cd-3b3d634d7330","sku":"PEP-BELL-4IN","name":"Pepper Plant","price":3.99,"barcode":"BC-PEP-001","isActive":true,"createdAt":"2026-03-03T02:41:22.326107+00:00","updatedAt":"2026-03-03T02:41:22.326107+00:00"},{"id":"019cb192-8031-7089-b288-5672c836c6da","sku":"PEP-BELL-4IN-1772505693","name":"Pepper Plant","price":3.99,"barcode":"BC-PEP-001-1772505693","isActive":true,"createdAt":"2026-03-03T02:41:34.257938+00:00","updatedAt":"2026-03-03T02:41:34.257938+00:00"},{"id":"019cb193-803c-7321-bb14-391b8b4622b7","sku":"SR14-SKU-001","name":"SR14-TestPlant","price":5.00,"barcode":"SR14-BC-001","isActive":true,"createdAt":"2026-03-03T02:42:39.80439+00:00","updatedAt":"2026-03-03T02:42:39.80439+00:00"},{"id":"019cb193-1eed-7ae8-a6cf-e64e3ea6f770","sku":"FLOWER-SUN-1","name":"Sunflower","price":3.99,"barcode":"BC-SUN-001","isActive":true,"createdAt":"2026-03-03T02:42:14.902631+00:00","updatedAt":"2026-03-03T02:42:14.902631+00:00"},{"id":"019cb192-acdd-77f2-b462-3108101e8794","sku":"SR01-P001","name":"Test Plant 01","barcode":"SR01-BC001","isActive":true,"createdAt":"2026-03-03T02:41:45.693701+00:00","updatedAt":"2026-03-03T02:41:45.693701+00:00"},{"id":"019cb192-ef6e-7951-a30d-96a0c148dafb","sku":"EP10-SKU-01","name":"Test Plant EP10 01","price":1.99,"barcode":"EP10-BC-01","isActive":true,"createdAt":"2026-03-03T02:42:02.734699+00:00","updatedAt":"2026-03-03T02:42:02.734699+00:00"},{"id":"019cb192-ef9f-76fb-8d22-c1287eac8cda","sku":"EP10-SKU-02","name":"Test Plant EP10 02","price":1.99,"barcode":"EP10-BC-02","isActive":true,"createdAt":"2026-03-03T02:42:02.7836+00:00","updatedAt":"2026-03-03T02:42:02.7836+00:00"},{"id":"019cb192-efcf-719a-a62d-649efd1782a4","sku":"EP10-SKU-03","name":"Test Plant EP10 03","price":1.99,"barcode":"EP10-BC-03","isActive":true,"createdAt":"2026-03-03T02:42:02.83162+00:00","updatedAt":"2026-03-03T02:42:02.83162+00:00"},{"id":"019cb192-effd-7f79-8f7a-7f473c85d370","sku":"EP10-SKU-04","name":"Test Plant EP10 04","price":1.99,"barcode":"EP10-BC-04","isActive":true,"createdAt":"2026-03-03T02:42:02.87763+00:00","updatedAt":"2026-03-03T02:42:02.87763+00:00"},{"id":"019cb192-f02e-7d39-9e01-b998ddd3c350","sku":"EP10-SKU-05","name":"Test Plant EP10 05","price":1.99,"barcode":"EP10-BC-05","isActive":true,"createdAt":"2026-03-03T02:42:02.926407+00:00","updatedAt":"2026-03-03T02:42:02.926407+00:00"},{"id":"019cb192-f06e-7056-a2b0-568287fc38df","sku":"EP10-SKU-06","name":"Test Plant EP10 06","price":1.99,"barcode":"EP10-BC-06","isActive":true,"createdAt":"2026-03-03T02:42:02.990293+00:00","updatedAt":"2026-03-03T02:42:02.990293+00:00"},{"id":"019cb192-f09a-70cb-a9ef-00f7f17802c1","sku":"EP10-SKU-07","name":"Test Plant EP10 07","price":1.99,"barcode":"EP10-BC-07","isActive":true,"createdAt":"2026-03-03T02:42:03.034693+00:00","updatedAt":"2026-03-03T02:42:03.034693+00:00"},{"id":"019cb192-f0c7-73d5-ae3d-1a13522690cd","sku":"EP10-SKU-08","name":"Test Plant EP10 08","price":1.99,"barcode":"EP10-BC-08","isActive":true,"createdAt":"2026-03-03T02:42:03.079579+00:00","updatedAt":"2026-03-03T02:42:03.079579+00:00"},{"id":"019cb192-f0ff-7b21-bb94-c5c8a1647f95","sku":"EP10-SKU-09","name":"Test Plant EP10 09","price":1.99,"barcode":"EP10-BC-09","isActive":true,"createdAt":"2026-03-03T02:42:03.135588+00:00","updatedAt":"2026-03-03T02:42:03.135588+00:00"},{"id":"019cb192-f131-79c9-a2e7-135e41fb6015","sku":"EP10-SKU-10","name":"Test Plant EP10 10","price":1.99,"barcode":"EP10-BC-10","isActive":true,"createdAt":"2026-03-03T02:42:03.18605+00:00","updatedAt":"2026-03-03T02:42:03.18605+00:00"},{"id":"019cb192-f161-730e-b94f-93f9e71e175d","sku":"EP10-SKU-11","name":"Test Plant EP10 11","price":1.99,"barcode":"EP10-BC-11","isActive":true,"createdAt":"2026-03-03T02:42:03.233878+00:00","updatedAt":"2026-03-03T02:42:03.233878+00:00"},{"id":"019cb192-f190-7e10-bbcc-f42ff4759071","sku":"EP10-SKU-12","name":"Test Plant EP10 12","price":1.99,"barcode":"EP10-BC-12","isActive":true,"createdAt":"2026-03-03T02:42:03.280223+00:00","updatedAt":"2026-03-03T02:42:03.280223+00:00"},{"id":"019cb192-f1c2-7ce4-9948-e34ab836e7b8","sku":"EP10-SKU-13","name":"Test Plant EP10 13","price":1.99,"barcode":"EP10-BC-13","isActive":true,"createdAt":"2026-03-03T02:42:03.330465+00:00","updatedAt":"2026-03-03T02:42:03.330465+00:00"},{"id":"019cb192-f1f1-7133-8294-5e9d4f00a7f5","sku":"EP10-SKU-14","name":"Test Plant EP10 14","price":1.99,"barcode":"EP10-BC-14","isActive":true,"createdAt":"2026-03-03T02:42:03.377915+00:00","updatedAt":"2026-03-03T02:42:03.377915+00:00"},{"id":"019cb192-f22b-7fbf-914b-5429efa903ed","sku":"EP10-SKU-15","name":"Test Plant EP10 15","price":1.99,"barcode":"EP10-BC-15","isActive":true,"createdAt":"2026-03-03T02:42:03.435387+00:00","updatedAt":"2026-03-03T02:42:03.435387+00:00"}],"totalCount":45,"page":1,"pageSize":25,"totalPages":2},"errors":[]}